Class Practice 9/24
…
## 2792   0        0        0    11
## 2793   0        0        0    14
## 2794   0        0        0     4
## 2795   0        0        0     5
## 2796   0        0        0     1
## 2797   0        0        0     4
## 2798 184       27        4 38093
## 2799  NA       NA       NA    NA
## 2800  NA       NA       NA    NA
## 2801  NA       NA       NA    NA
## 2802  NA       NA       NA    NA
## 2803  NA       NA       NA    NA
## 2804  NA       NA       NA    NA

## # A tibble: 70 x 3
##    course_title course_name                    total
##    <chr>        <chr>                          <dbl>
##  1 GOV 1510     American Constitutional Law      178
##  2 GOV 1010     Survey Research Methods          115
##  3 GOV 20       Foundations Comparative Pol      105
##  4 GOV 3003A    Doctoral Dissertation             89
##  5 GOV 30       US Gov: A New Perspective         87
##  6 GOV 1005     Data                              82
##  7 GOV 1270     Gov & Politics of Modern Japan    50
##  8 GOV 1243     Russian Politics in Transition    40
##  9 GOV 1107     US-Mexico Relations               39
## 10 GOV 1780     International Pol Economy         37
## #  with 60 more rows
